<svg xmlns="http://www.w3.org/2000/svg" width="22.059" height="22.059" viewBox="0 0 22.059 22.059">
  <defs>
    <style>
      .cls-aws-subnet-1{fill:none}.cls-aws-subnet-2{clip-path:url(#clip-path-cls-aws-subnet)}.cls-aws-subnet-3{fill:#248814}.cls-aws-subnet-4{fill:#fff}
    </style>
    <clipPath id="clip-path-cls-aws-subnet">
      <path d="M0 0h22.059v22.059H0z" class="cls-aws-subnet-1"/>
    </clipPath>
  </defs>
  <g id="Working-cls-aws-subnet" class="cls-aws-subnet-2">
    <path id="Rectangle_1560" d="M0 0h22.059v22.059H0z" class="cls-aws-subnet-3" data-name="Rectangle 1560"/>
    <path id="Path_603"
          d="M16.638 17.84a1.506 1.506 0 0 0-.315 2.975v2.074h.63v-2.074a1.506 1.506 0 0 0-.315-2.975zm0 2.376a.876.876 0 1 1 .87-.882v.013a.87.87 0 0 1-.87.869z"
          class="cls-aws-subnet-4" data-name="Path 603" transform="translate(-5.602 -6.609)"/>
    <path id="Path_604"
          d="M17.7 11.4V9.72a3.29 3.29 0 0 0-6.58 0v1.68H9.14v9.006h10.538V11.4zm-5.951-1.68a2.66 2.66 0 1 1 5.319 0v1.68h-5.319zm7.3 10.084H9.77v-7.771h9.277z"
          class="cls-aws-subnet-4" data-name="Path 604" transform="translate(-3.379 -2.39)"/>
  </g>
</svg>
