<svg xmlns="http://www.w3.org/2000/svg" width="36.6" height="49.9" viewBox="0 0 36.6 49.9">
    <defs>
        <style>.ash-azure-nsg-1{fill:#3999c6;}.ash-azure-nsg-2{fill:#59b4d9;opacity:0.4;}.ash-azure-nsg-3,.ash-azure-nsg-4{fill:#fff;}.ash-azure-nsg-3{opacity:0.3;}.ash-azure-nsg-4{opacity:0.7;}</style>
    </defs>
    <g transform="translate(-1206 -79)">
        <path class="ash-azure-nsg-1" d="M38.2,6h0c-11-1.2-12.9-6-12.9-6S22.8,6.2,7,6.2V31.8c0,3.1,1.7,6,4.1,8.5h0c5.4,5.7,14.2,9.6,14.2,9.6s18.3-8,18.3-18.1V6.2C41.6,6.2,39.8,6.1,38.2,6Z" transform="translate(1199 79)"/>
        <path class="ash-azure-nsg-2" d="M29.9,16.5,38.2,6c-11-1.2-12.9-6-12.9-6S22.8,6.2,7,6.2V31.8c0,3.1,1.7,6,4.1,8.5l6.2-7.8Z" transform="translate(1199 79)"/>
        <g transform="translate(1199 79)">
            <path class="ash-azure-nsg-3" d="M10.8,24.4v6.1c0,2.5,1.4,4.8,3.3,6.8,4.3,4.6,11.3,7.6,11.3,7.6V24.4Z"/>
            <path class="ash-azure-nsg-4" d="M25.3,44.9s14.6-6.4,14.6-14.4V24.4H25.3Z"/>
            <path class="ash-azure-nsg-4" d="M25.3,5.1h0s-2,5-14.6,5V24.4H25.3Z"/>
            <path class="ash-azure-nsg-3" d="M35.5,9.9c-8.7-1-10.2-4.7-10.2-4.7V24.4H39.9V10.1C38.3,10.1,36.8,10,35.5,9.9Z"/>
        </g>
    </g>
</svg>