<svg xmlns="http://www.w3.org/2000/svg" width="16.023" height="16.021" viewBox="0 0 16.023 16.021">
    <defs>
        <style>
        
        </style>
    </defs>
    <g id="Component_624_14" data-name="Component 624 – 14" transform="translate(.001)">
        <path id="Path_658" d="M335.045 411.138c1 0 2-.014 2.994 0a1.614 1.614 0 0 1 1.8 1.775q.028 3.044 0 6.088a1.586 1.586 0 0 1-1.747 1.729q-3.044.03-6.088 0a1.584 1.584 0 0 1-1.753-1.723q-.034-3.093 0-6.187a1.57 1.57 0 0 1 1.7-1.68c1.032-.021 2.063-.001 3.094-.002zm-3.126 1.644v6.278h6.281v-6.278z" class="ash-cls-dissolve-1" data-name="Path 658" transform="translate(-323.836 -411.132)"/>
        <path id="Path_659" d="M330.274 427.068v-3.082h1.545c0 1.147.082 2.308-.027 3.45a1.429 1.429 0 0 1-1.536 1.3c-2.133.021-4.266.03-6.4 0a1.541 1.541 0 0 1-1.6-1.671q-.036-3.1 0-6.2a1.573 1.573 0 0 1 1.665-1.715c1-.03 1.992-.006 3.058-.006v1.592H323.9v6.338z" class="ash-cls-dissolve-1" data-name="Path 659" transform="translate(-322.238 -412.73)"/>
    </g>
</svg>
