<svg xmlns="http://www.w3.org/2000/svg" width="18" height="18" viewBox="0 0 18 18">
    <defs>
        <style>
            .erase-cls-1{fill:#f1b1b2}.erase-cls-2{fill:none;stroke:#393939;stroke-linecap:round}
        </style>
    </defs>
    <g id="ic_erase" transform="translate(-1069 -356)">
        <circle id="Ellipse_281" cx="9" cy="9" r="9" class="erase-cls-1" data-name="Ellipse 281" transform="translate(1069 356)"/>
        <g id="Group_570" data-name="Group 570" transform="translate(1075.46 362.412)">
            <path id="Line_378" d="M0 0l5.588 5.588" class="erase-cls-2" data-name="Line 378"/>
            <path id="Line_379" d="M5.588 0L0 5.588" class="erase-cls-2" data-name="Line 379"/>
        </g>
    </g>
</svg>
