<svg xmlns="http://www.w3.org/2000/svg" width="16" height="16" viewBox="0 0 16 16">
  <defs>
    <style>
      .cls-ash-policy-failed-1{fill:none}.cls-ash-policy-failed-2{clip-path:url(#clip-path)}.cls-ash-policy-failed-3{fill:#ff0b15}.cls-ash-policy-failed-4,.cls-ash-policy-failed-5{fill:#fff}.cls-ash-policy-failed-5{stroke:rgba(0,0,0,0)}
    </style>
    <clipPath id="clip-path">
      <path d="M0 0h16v16H0z" class="cls-ash-policy-failed-1"/>
    </clipPath>
  </defs>
  <g id="ic_failed" class="cls-2">
    <path id="Path_579" d="M8 0a8 8 0 1 1-8 8 8 8 0 0 1 8-8z" class="cls-ash-policy-failed-3" data-name="Path 579"/>
    <path id="Union_31"
          d="M1376.181 10843.147a1.451 1.451 0 1 1 1.451 1.448 1.449 1.449 0 0 1-1.451-1.448zm0-4.085v-5.675a.644.644 0 0 1 .686-.588h1.524a.644.644 0 0 1 .686.588v5.675a1.466 1.466 0 0 1-2.9 0z"
          class="cls-ash-policy-failed-5" data-name="Union 31" transform="translate(-1369.603 -10830.332)"/>
  </g>
</svg>
