<svg xmlns="http://www.w3.org/2000/svg" width="159.938" height="115.119" viewBox="0 0 159.938 115.119">
    <defs>
        <clipPath id="prefix__clip-path">
            <path fill="none" d="M0 0H159.938V115.119H0z"/>
        </clipPath>
    </defs>
    <g id="prefix__Symbol_3_3" clip-path="url(#prefix__clip-path)" data-name="Symbol 3 – 3">
        <path id="prefix__rainbow_1_" fill="#e0f4fd" d="M0 32.284v-3.593A28.636 28.636 0 0 1 28.439 0h.673l.351.01c.144.005.287.012.431.019a28.284 28.284 0 0 1 12.855 3.817l.127.074q.266.156.529.318a28.971 28.971 0 0 1 8.779 8.367 2.238 2.238 0 0 1 .234.45 28.748 28.748 0 0 1 2.68 5.256 2.239 2.239 0 0 1-1.27 2.894 2.221 2.221 0 0 1-2.883-1.276A24 24 0 0 0 29.286 4.487h-.073q-.32-.01-.641-.012h-.079A24.2 24.2 0 0 0 4.455 28.691v3.593a2.228 2.228 0 1 1-4.455 0zm37.542-21.249a19.64 19.64 0 0 0-9.028-2.2h-.065a19.413 19.413 0 0 0-13.809 5.778 19.663 19.663 0 0 0-5.73 13.944v3.758a2.228 2.228 0 1 0 4.455 0v-3.758a15.152 15.152 0 0 1 27.407-9.008 2.231 2.231 0 1 0 3.593-2.649 19.836 19.836 0 0 0-6.823-5.865zM34.528 24.6a2.217 2.217 0 0 0 1.6-.681 2.243 2.243 0 0 0-.05-3.162 10.874 10.874 0 0 0-7.543-2.978h-.079a10.525 10.525 0 0 0-7.517 3.248 10.947 10.947 0 0 0-3.118 7.664v3.125a2.228 2.228 0 1 0 4.455 0v-3.125a6.356 6.356 0 0 1 10.7-4.721 2.216 2.216 0 0 0 1.552.63z" data-name="rainbow(1)" opacity="0.997" transform="rotate(48 61.484 138.096)"/>
        <path id="prefix__Path_229" fill="#e0f4fd" d="M304.636 464.08c.293 0 .593.01.89.023a21.14 21.14 0 0 1 40.149 6.505 14.919 14.919 0 0 1 2.014.674 34.24 34.24 0 0 0-42.889-41.416 39.963 39.963 0 0 0-78.655 13.462c-.75-.062-1.508-.1-2.272-.1a26.869 26.869 0 0 0-.21 53.737h68.615a18.758 18.758 0 0 1 12.363-32.887z" data-name="Path 229" opacity="0.998" transform="translate(-197 -382.012)"/>
        <path id="prefix__Path_230" fill="#f0f0f0" d="M667.553 668.123a16.45 16.45 0 0 0-16.026 12.749 14.105 14.105 0 1 0-4.018 27.626h37.416a11.062 11.062 0 0 0-.086-22.123c-.314 0-.625.017-.936.042a17.444 17.444 0 0 0 .108-1.836 16.457 16.457 0 0 0-16.458-16.458z" data-name="Path 230" transform="translate(-538.674 -593.378)"/>
    </g>
</svg>
