<svg xmlns="http://www.w3.org/2000/svg" width="16.738" height="18.5" viewBox="-1 0 18.5 18.5">
    <defs>
        <style>
            .cls-np_ic_blue-1{fill:#fff;stroke:#1da5e7}.cls-np_ic_blue-2{fill:#1c9fdf}.cls-np_ic_blue-3,.cls-np_ic_blue-5{fill:none}.cls-np_ic_blue-3{stroke:#1fa8e9;stroke-linecap:round}.cls-np_ic_blue-4{stroke:none}
        </style>
    </defs>
    <g id="np_ic_blue" transform="translate(-96 -212)">
        <g id="Rectangle_623" class="cls-np_ic_blue-1" data-name="Rectangle 623" transform="translate(99.524 215.524)">
            <rect width="13.214" height="14.976" class="cls-np_ic_blue-4" rx="2"/>
            <rect width="12.214" height="13.976" x=".5" y=".5" class="cls-np_ic_blue-5" rx="1.5"/>
        </g>
        <path id="Subtraction_1" d="M1.1 14.761A1.992 1.992 0 0 1 0 12.976V2a2 2 0 0 1 2-2h9.214A1.993 1.993 0 0 1 13 1.1a1.977 1.977 0 0 0-.9-.216H2.881a2 2 0 0 0-2 2v10.973a1.978 1.978 0 0 0 .214.9z" class="cls-np_ic_blue-2" data-name="Subtraction 1" transform="translate(97.762 213.762)"/>
        <path id="Line_774" d="M0 0h5.286" class="cls-np_ic_blue-3" data-name="Line 774" transform="translate(103.488 220.369)"/>
        <path id="Line_775" d="M0 0h5.286" class="cls-np_ic_blue-3" data-name="Line 775" transform="translate(103.488 223.012)"/>
        <path id="Line_776" d="M0 0h5.286" class="cls-np_ic_blue-3" data-name="Line 776" transform="translate(103.488 225.655)"/>
        <path id="Subtraction_2" d="M1.1 14.761A1.992 1.992 0 0 1 0 12.976V2a2 2 0 0 1 2-2h9.214A1.993 1.993 0 0 1 13 1.1a1.977 1.977 0 0 0-.9-.216H2.881a2 2 0 0 0-2 2v10.973a1.978 1.978 0 0 0 .214.9z" class="cls-np_ic_blue-2" data-name="Subtraction 2" transform="translate(96 212)"/>
    </g>
</svg>
